<?xml version="1.0" encoding="utf-8"?>
<!-- Generator: Adobe Illustrator 18.1.1, SVG Export Plug-In . SVG Version: 6.00 Build 0)  -->
<svg version="1.1" id="Ebene_1" xmlns="http://www.w3.org/2000/svg" xmlns:xlink="http://www.w3.org/1999/xlink" x="0px" y="0px"
	 viewBox="-74 76 100 100" enable-background="new -74 76 100 100" xml:space="preserve">
<path fill="#38d9be" d="M-21.7,99.7c-1.3,0-2.2,1-2.2,2.3s1,2.3,2.2,2.3c11.8,0,21.4,9.6,21.4,21.4c0,11.8-9.6,21.4-21.4,21.4
	c-10.9,0-19.9-8.1-21.3-18.6l1.6,1.6c0.4,0.4,1,0.7,1.6,0.7s1.2-0.3,1.6-0.7c0.9-0.9,0.9-2.3,0-3.2l-5.7-5.7c-0.9-0.9-2.3-0.9-3.2,0
	l-5.7,5.7c-0.9,0.9-0.9,2.3,0,3.2c0.9,0.9,2.3,0.9,3.2,0l1.9-1.9c1.3,13.1,12.4,23.5,25.9,23.5c14.3,0,26-11.7,26-26
	C4.4,111.4-7.3,99.7-21.7,99.7z"/>
<path fill="#38d9be" d="M-30.3,138.4c-0.6,0-1.2-0.3-1.7-0.7c-1-1-1-2.5,0-3.5l7.6-7.6v-15.3c0-1.4,1.1-2.4,2.4-2.4c1.4,0,2.4,1.1,2.4,2.4v16.3
	c0,0.6-0.3,1.3-0.7,1.7l-8.3,8.3C-29,138.3-29.6,138.4-30.3,138.4z"/>
</svg>
