<?xml version="1.0" encoding="utf-8"?>
<!-- Generator: Adobe Illustrator 18.1.1, SVG Export Plug-In . SVG Version: 6.00 Build 0)  -->
<svg version="1.1" id="Layer_1" xmlns="http://www.w3.org/2000/svg" xmlns:xlink="http://www.w3.org/1999/xlink" x="0px" y="0px"
	 viewBox="-74 76 100 100" enable-background="new -74 76 100 100" xml:space="preserve">
<path fill="#FFFFFF" d="M13.3,123.8c-0.7-9.9-5.2-18.9-12.7-25.3c-6.7-5.8-15.3-9-24.2-9c-10.8,0-21,4.7-28.1,12.8
	c-6.5,7.5-9.6,17.1-8.9,26.9c0.7,9.9,5.2,18.9,12.7,25.3c6.7,5.8,15.3,9,24.2,9c10.8,0,21-4.7,28.1-12.8
	C10.8,143.2,14,133.6,13.3,123.8z M-1.1,145.9c-5.7,6.5-13.9,10.3-22.6,10.3c-7.1,0-14-2.6-19.5-7.2c-6-5.2-9.7-12.4-10.2-20.4
	c-0.6-7.9,2-15.6,7.2-21.6c5.7-6.6,13.9-10.3,22.6-10.3c7.1,0,14,2.6,19.4,7.2c6,5.2,9.6,12.4,10.2,20.4
	C6.6,132.2,4.1,139.9-1.1,145.9z"/>
<polygon fill="#FFFFFF" points="-14.4,138.3 -36.4,119.2 -31.6,113.7 -9.6,132.8 "/>
<rect x="-26.6" y="111.4" transform="matrix(-0.757 -0.6535 0.6535 -0.757 -122.7503 206.3456)" fill="#FFFFFF" width="7.3" height="29.1"/>
</svg>
