<svg version="1.1" id="Capa_1" xmlns="http://www.w3.org/2000/svg" xmlns:xlink="http://www.w3.org/1999/xlink" x="0px" y="0px"
	 viewBox="0 0 16 16" style="enable-background:new 0 0 16 16;" width="50" height="50" xml:space="preserve">
<g>
	<g>
		<path style="fill:#fff" d="M8,0C3.582,0,0,3.582,0,8s3.582,8,8,8s8-3.582,8-8C16,3.581,12.418,0,8,0z M10.068,7.999L8.757,8
			l-0.001,4.8H6.957V8h-1.2V6.346l1.2-0.001L6.955,5.371c0-1.35,0.366-2.171,1.955-2.171h1.324v1.655H9.406
			c-0.619,0-0.649,0.231-0.649,0.662L8.755,6.345h1.488L10.068,7.999z"/>
	</g>
</g>
</svg>
