<?xml version="1.0" encoding="utf-8"?>
<!-- Generator: Adobe Illustrator 18.1.1, SVG Export Plug-In . SVG Version: 6.00 Build 0)  -->
<svg version="1.1" id="Layer_1" xmlns="http://www.w3.org/2000/svg" xmlns:xlink="http://www.w3.org/1999/xlink" x="0px" y="0px"
	 viewBox="-349 251 100 100" enable-background="new -349 251 100 100" xml:space="preserve">
<path display="none" d="M-294.3,255c-1.5,0-2.6,1.2-2.6,2.7c0,1.5,1.2,2.7,2.6,2.7c13.7,0,24.8,11.1,24.8,24.8
	c0,13.7-11.1,24.8-24.8,24.8c-12.6,0-23-9.4-24.6-21.5l1.9,1.9c0.5,0.5,1.2,0.8,1.9,0.8c0.7,0,1.4-0.3,1.9-0.8c1-1,1-2.7,0-3.7
	l-6.6-6.6c-1-1-2.7-1-3.7,0l-6.6,6.6c-1,1-1,2.7,0,3.7c1,1,2.7,1,3.7,0l2.2-2.2c1.5,15.2,14.4,27.2,30,27.2
	c16.6,0,30.1-13.5,30.1-30.1C-264.1,268.5-277.7,255-294.3,255z"/>
<circle fill="#848c95" cx="-283.3" cy="270" r="2.5"/>
<circle fill="#848c95" cx="-278.3" cy="284.1" r="2.5"/>
<circle fill="#848c95" cx="-283.3" cy="297.8" r="2.5"/>
<circle fill="#848c95" cx="-294.7" cy="305.3" r="2.5"/>
<path fill="#848c95" d="M-304.3,299.8c-0.7,0-1.4-0.3-2-0.8c-1.1-1.1-1.1-2.9,0-4l8.8-8.8v-17.8c0-1.6,1.3-2.8,2.8-2.8c1.6,0,2.8,1.3,2.8,2.8v18.9
	c0,0.7-0.3,1.5-0.8,2l-9.6,9.6C-302.8,299.6-303.5,299.8-304.3,299.8z"/>
<path display="none" d="M-294.3,255c-1.5,0-2.6,1.2-2.6,2.7c0,1.5,1.2,2.7,2.6,2.7c13.7,0,24.8,11.1,24.8,24.8
	c0,13.7-11.1,24.8-24.8,24.8c-12.6,0-23-9.4-24.6-21.5l1.9,1.9c0.5,0.5,1.2,0.8,1.9,0.8c0.7,0,1.4-0.3,1.9-0.8c1-1,1-2.7,0-3.7
	l-6.6-6.6c-1-1-2.7-1-3.7,0l-6.6,6.6c-1,1-1,2.7,0,3.7c1,1,2.7,1,3.7,0l2.2-2.2c1.5,15.2,14.4,27.2,30,27.2
	c16.6,0,30.1-13.5,30.1-30.1C-264.1,268.5-277.7,255-294.3,255z"/>
<circle fill="none" stroke="#848c95" stroke-width="5.5" stroke-miterlimit="10" cx="-294.2" cy="285" r="27.4"/>
<circle fill="#848c95" cx="-311.6" cy="284.1" r="2.5"/>
<circle fill="#848c95" cx="-306.2" cy="270" r="2.5"/>
</svg>
